Manipulating containers
…
out <- split(flights, flights$tailnum) %>%
  sapply(function(d) sum(d$distance, na.rm=TRUE)) %>%
    sort(decreasing=TRUE) %>% 
      head(n=5)
out

## N328AA N338AA N327AA N335AA N323AA 
## 939101 931183 915665 909696 844529

What do we know about the airlines that worked these planes so hard?

with(flights, flights[tailnum == names(out)[-1], "carrier"])

## # A tibble: 2,890 x 1
##    carrier
##      <chr>
## 1     <NA>
## 2     <NA>
## 3     <NA>
## 4     <NA>
## 5       AA
## 6       AA
## 7     <NA>
## 8     <NA>
## 9       AA
## 10    <NA>
## # ... with 2,880 more rows
…
group_by

The dplyr package provides group_by which makes some of these tasks a bit more straightforward. The group_by function does the splitting:

group_by(flights, carrier)   # no need to qualify `carrier`

## Source: local data frame [336,776 x 19]
## Groups: carrier [16]
## 
##     year month   day dep_time sched_dep_time dep_delay arr_time
##    <int> <int> <int>    <int>          <int>     <dbl>    <int>
## 1   2013     1     1      517            515         2      830
## 2   2013     1     1      533            529         4      850
## 3   2013     1     1      542            540         2      923
## 4   2013     1     1      544            545        -1     1004
## 5   2013     1     1      554            600        -6      812
## 6   2013     1     1      554            558        -4      740
## 7   2013     1     1      555            600        -5      913
## 8   2013     1     1      557            600        -3      709
## 9   2013     1     1      557            600        -3      838
## 10  2013     1     1      558            600        -2      753
## # ... with 336,766 more rows, and 12 more variables: sched_arr_time <int>,
## #   arr_delay <dbl>, carrier <chr>, flight <int>, tailnum <chr>,
## #   origin <chr>, dest <chr>, air_time <dbl>, distance <dbl>, hour <dbl>,
## #   minute <dbl>, time_hour <time>
…
